{
    "page": 1,
    "per_page": 15,
    "photos": [
        {
            "id": 2525903,
            "width": 5472,
            "height": 3648,
            "url": "https://www.pexels.com/photo/city-near-mountain-during-golden-hour-2525903/",
            "photographer": "Roberto Nickson",
            "photographer_url": "https://www.pexels.com/@rpnickson",
            "photographer_id": 1268114,
            "avg_color": "#574250",
            "src": {
                "original": "https://images.pexels.com/photos/2525903/pexels-photo-2525903.jpeg",
                "large2x": "https://images.pexels.com/photos/2525903/pexels-photo-2525903.jpeg?auto=compress&cs=tinysrgb&dpr=2&h=650&w=940",
                "large": "https://images.pexels.com/photos/2525903/pexels-photo-2525903.jpeg?auto=compress&cs=tinysrgb&h=650&w=940",
                "medium": "https://images.pexels.com/photos/2525903/pexels-photo-2525903.jpeg?auto=compress&cs=tinysrgb&h=350",
                "small": "https://images.pexels.com/photos/2525903/pexels-photo-2525903.jpeg?auto=compress&cs=tinysrgb&h=130",
                "portrait": "https://images.pexels.com/photos/2525903/pexels-photo-2525903.jpeg?auto=compress&cs=tinysrgb&fit=crop&h=1200&w=800",
                "landscape": "https://images.pexels.com/photos/2525903/pexels-photo-2525903.jpeg?auto=compress&cs=tinysrgb&fit=crop&h=627&w=1200",
                "tiny": "https://images.pexels.com/photos/2525903/pexels-photo-2525903.jpeg?auto=compress&cs=tinysrgb&dpr=1&fit=crop&h=200&w=280"
            },
            "liked": false,
            "alt": "City Near Mountain During Golden Hour"
        },
        {
            "id": 2816168,
            "width": 5472,
            "height": 3648,
            "url": "https://www.pexels.com/photo/city-buildings-and-trees-during-golden-hour-2816168/",
            "photographer": "Roberto Nickson",
            "photographer_url": "https://www.pexels.com/@rpnickson",
            "photographer_id": 1268114,
            "avg_color": "#756153",
            "src": {
                "original": "https://images.pexels.com/photos/2816168/pexels-photo-2816168.jpeg",
                "large2x": "https://images.pexels.com/photos/2816168/pexels-photo-2816168.jpeg?auto=compress&cs=tinysrgb&dpr=2&h=650&w=940",
                "large": "https://images.pexels.com/photos/2816168/pexels-photo-2816168.jpeg?auto=compress&cs=tinysrgb&h=650&w=940",
                "medium": "https://images.pexels.com/photos/2816168/pexels-photo-2816168.jpeg?auto=compress&cs=tinysrgb&h=350",
                "small": "https://images.pexels.com/photos/2816168/pexels-photo-2816168.jpeg?auto=compress&cs=tinysrgb&h=130",
                "portrait": "https://images.pexels.com/photos/2816168/pexels-photo-2816168.jpeg?auto=compress&cs=tinysrgb&fit=crop&h=1200&w=800",
                "landscape": "https://images.pexels.com/photos/2816168/pexels-photo-2816168.jpeg?auto=compress&cs=tinysrgb&fit=crop&h=627&w=1200",
                "tiny": "https://images.pexels.com/photos/2816168/pexels-photo-2816168.jpeg?auto=compress&cs=tinysrgb&dpr=1&fit=crop&h=200&w=280"
            },
            "liked": false,
            "alt": "City Buildings and Trees during Golden Hour"
        },
        {
            "id": 1049302,
            "width": 3844,
            "height": 2882,
            "url": "https://www.pexels.com/photo/photography-of-city-building-1049302/",
            "photographer": "Daisy Naranjo",
            "photographer_url": "https://www.pexels.com/@daisyna",
            "photographer_id": 394319,
            "avg_color": "#B0B6B8",
            "src": {
                "original": "https://images.pexels.com/photos/1049302/pexels-photo-1049302.jpeg",
                "large2x": "https://images.pexels.com/photos/1049302/pexels-photo-1049302.jpeg?auto=compress&cs=tinysrgb&dpr=2&h=650&w=940",
                "large": "https://images.pexels.com/photos/1049302/pexels-photo-1049302.jpeg?auto=compress&cs=tinysrgb&h=650&w=940",
                "medium": "https://images.pexels.com/photos/1049302/pexels-photo-1049302.jpeg?auto=compress&cs=tinysrgb&h=350",
                "small": "https://images.pexels.com/photos/1049302/pexels-photo-1049302.jpeg?auto=compress&cs=tinysrgb&h=130",
                "portrait": "https://images.pexels.com/photos/1049302/pexels-photo-1049302.jpeg?auto=compress&cs=tinysrgb&fit=crop&h=1200&w=800",
                "landscape": "https://images.pexels.com/photos/1049302/pexels-photo-1049302.jpeg?auto=compress&cs=tinysrgb&fit=crop&h=627&w=1200",
                "tiny": "https://images.pexels.com/photos/1049302/pexels-photo-1049302.jpeg?auto=compress&cs=tinysrgb&dpr=1&fit=crop&h=200&w=280"
            },
            "liked": false,
            "alt": "Photography of City Building"
        },
        {
            "id": 2695679,
            "width": 6520,
            "height": 4269,
            "url": "https://www.pexels.com/photo/hollywood-sign-2695679/",
            "photographer": "Paul Deetman",
            "photographer_url": "https://www.pexels.com/@paul-deetman-1396663",
            "photographer_id": 1396663,
            "avg_color": "#2E595A",
            "src": {
                "original": "https://images.pexels.com/photos/2695679/pexels-photo-2695679.jpeg",
                "large2x": "https://images.pexels.com/photos/2695679/pexels-photo-2695679.jpeg?auto=compress&cs=tinysrgb&dpr=2&h=650&w=940",
                "large": "https://images.pexels.com/photos/2695679/pexels-photo-2695679.jpeg?auto=compress&cs=tinysrgb&h=650&w=940",
                "medium": "https://images.pexels.com/photos/2695679/pexels-photo-2695679.jpeg?auto=compress&cs=tinysrgb&h=350",
                "small": "https://images.pexels.com/photos/2695679/pexels-photo-2695679.jpeg?auto=compress&cs=tinysrgb&h=130",
                "portrait": "https://images.pexels.com/photos/2695679/pexels-photo-2695679.jpeg?auto=compress&cs=tinysrgb&fit=crop&h=1200&w=800",
                "landscape": "https://images.pexels.com/photos/2695679/pexels-photo-2695679.jpeg?auto=compress&cs=tinysrgb&fit=crop&h=627&w=1200",
                "tiny": "https://images.pexels.com/photos/2695679/pexels-photo-2695679.jpeg?auto=compress&cs=tinysrgb&dpr=1&fit=crop&h=200&w=280"
            },
            "liked": false,
            "alt": "Hollywood Sign"
        },
        {
            "id": 462219,
            "width": 2000,
            "height": 1600,
            "url": "https://www.pexels.com/photo/architecture-bridge-buildings-canal-462219/",
            "photographer": "Pixabay",
            "photographer_url": "https://www.pexels.com/@pixabay",
            "photographer_id": 2659,
            "avg_color": "#726960",
            "src": {
                "original": "https://images.pexels.com/photos/462219/pexels-photo-462219.jpeg",
                "large2x": "https://images.pexels.com/photos/462219/pexels-photo-462219.jpeg?auto=compress&cs=tinysrgb&dpr=2&h=650&w=940",
                "large": "https://images.pexels.com/photos/462219/pexels-photo-462219.jpeg?auto=compress&cs=tinysrgb&h=650&w=940",
                "medium": "https://images.pexels.com/photos/462219/pexels-photo-462219.jpeg?auto=compress&cs=tinysrgb&h=350",
                "small": "https://images.pexels.com/photos/462219/pexels-photo-462219.jpeg?auto=compress&cs=tinysrgb&h=130",
                "portrait": "https://images.pexels.com/photos/462219/pexels-photo-462219.jpeg?auto=compress&cs=tinysrgb&fit=crop&h=1200&w=800",
                "landscape": "https://images.pexels.com/photos/462219/pexels-photo-462219.jpeg?auto=compress&cs=tinysrgb&fit=crop&h=627&w=1200",
                "tiny": "https://images.pexels.com/photos/462219/pexels-photo-462219.jpeg?auto=compress&cs=tinysrgb&dpr=1&fit=crop&h=200&w=280"
            },
            "liked": false,
            "alt": "High-rise Buildings"
        },
        {
            "id": 2263683,
            "width": 4678,
            "height": 3118,
            "url": "https://www.pexels.com/photo/white-vehicle-parked-on-road-between-trees-2263683/",
            "photographer": "Vincent Gerbouin",
            "photographer_url": "https://www.pexels.com/@vincent-gerbouin-445991",
            "photographer_id": 445991,
            "avg_color": "#6D7170",
            "src": {
                "original": "https://images.pexels.com/photos/2263683/pexels-photo-2263683.jpeg",
                "large2x": "https://images.pexels.com/photos/2263683/pexels-photo-2263683.jpeg?auto=compress&cs=tinysrgb&dpr=2&h=650&w=940",
                "large": "https://images.pexels.com/photos/2263683/pexels-photo-2263683.jpeg?auto=compress&cs=tinysrgb&h=650&w=940",
                "medium": "https://images.pexels.com/photos/2263683/pexels-photo-2263683.jpeg?auto=compress&cs=tinysrgb&h=350",
                "small": "https://images.pexels.com/photos/2263683/pexels-photo-2263683.jpeg?auto=compress&cs=tinysrgb&h=130",
                "portrait": "https://images.pexels.com/photos/2263683/pexels-photo-2263683.jpeg?auto=compress&cs=tinysrgb&fit=crop&h=1200&w=800",
                "landscape": "https://images.pexels.com/photos/2263683/pexels-photo-2263683.jpeg?auto=compress&cs=tinysrgb&fit=crop&h=627&w=1200",
                "tiny": "https://images.pexels.com/photos/2263683/pexels-photo-2263683.jpeg?auto=compress&cs=tinysrgb&dpr=1&fit=crop&h=200&w=280"
            },
            "liked": false,
            "alt": "White Vehicle Parked on Road Between Trees"
        },
        {
            "id": 1688186,
            "width": 2464,
            "height": 1632,
            "url": "https://www.pexels.com/photo/red-car-on-the-road-1688186/",
            "photographer": "Daniel Semenov",
            "photographer_url": "https://www.pexels.com/@daniel-semenov-595035",
            "photographer_id": 595035,
            "avg_color": "#465962",
            "src": {
                "original": "https://images.pexels.com/photos/1688186/pexels-photo-1688186.jpeg",
                "large2x": "https://images.pexels.com/photos/1688186/pexels-photo-1688186.jpeg?auto=compress&cs=tinysrgb&dpr=2&h=650&w=940",
                "large": "https://images.pexels.com/photos/1688186/pexels-photo-1688186.jpeg?auto=compress&cs=tinysrgb&h=650&w=940",
                "medium": "https://images.pexels.com/photos/1688186/pexels-photo-1688186.jpeg?auto=compress&cs=tinysrgb&h=350",
                "small": "https://images.pexels.com/photos/1688186/pexels-photo-1688186.jpeg?auto=compress&cs=tinysrgb&h=130",
                "portrait": "https://images.pexels.com/photos/1688186/pexels-photo-1688186.jpeg?auto=compress&cs=tinysrgb&fit=crop&h=1200&w=800",
                "landscape": "https://images.pexels.com/photos/1688186/pexels-photo-1688186.jpeg?auto=compress&cs=tinysrgb&fit=crop&h=627&w=1200",
                "tiny": "https://images.pexels.com/photos/1688186/pexels-photo-1688186.jpeg?auto=compress&cs=tinysrgb&dpr=1&fit=crop&h=200&w=280"
            },
            "liked": false,
            "alt": "Red Car on the Road"
        },
        {
            "id": 3166785,
            "width": 3648,
            "height": 5472,
            "url": "https://www.pexels.com/photo/cars-parked-on-the-side-of-the-road-3166785/",
            "photographer": "Roberto Nickson",
            "photographer_url": "https://www.pexels.com/@rpnickson",
            "photographer_id": 1268114,
            "avg_color": "#453E37",
            "src": {
                "original": "https://images.pexels.com/photos/3166785/pexels-photo-3166785.jpeg",
                "large2x": "https://images.pexels.com/photos/3166785/pexels-photo-3166785.jpeg?auto=compress&cs=tinysrgb&dpr=2&h=650&w=940",
                "large": "https://images.pexels.com/photos/3166785/pexels-photo-3166785.jpeg?auto=compress&cs=tinysrgb&h=650&w=940",
                "medium": "https://images.pexels.com/photos/3166785/pexels-photo-3166785.jpeg?auto=compress&cs=tinysrgb&h=350",
                "small": "https://images.pexels.com/photos/3166785/pexels-photo-3166785.jpeg?auto=compress&cs=tinysrgb&h=130",
                "portrait": "https://images.pexels.com/photos/3166785/pexels-photo-3166785.jpeg?auto=compress&cs=tinysrgb&fit=crop&h=1200&w=800",
                "landscape": "https://images.pexels.com/photos/3166785/pexels-photo-3166785.jpeg?auto=compress&cs=tinysrgb&fit=crop&h=627&w=1200",
                "tiny": "https://images.pexels.com/photos/3166785/pexels-photo-3166785.jpeg?auto=compress&cs=tinysrgb&dpr=1&fit=crop&h=200&w=280"
            },
            "liked": false,
            "alt": "Cars Parked on the Side of the Road"
        },
        {
            "id": 2181230,
            "width": 3456,
            "height": 3456,
            "url": "https://www.pexels.com/photo/low-angle-photography-of-brown-building-with-los-angeles-led-sign-2181230/",
            "photographer": "Giovanni Calia",
            "photographer_url": "https://www.pexels.com/@giovanni-calia-1140926",
            "photographer_id": 1140926,
            "avg_color": "#1A6868",
            "src": {
                "original": "https://images.pexels.com/photos/2181230/pexels-photo-2181230.jpeg",
                "large2x": "https://images.pexels.com/photos/2181230/pexels-photo-2181230.jpeg?auto=compress&cs=tinysrgb&dpr=2&h=650&w=940",
                "large": "https://images.pexels.com/photos/2181230/pexels-photo-2181230.jpeg?auto=compress&cs=tinysrgb&h=650&w=940",
                "medium": "https://images.pexels.com/photos/2181230/pexels-photo-2181230.jpeg?auto=compress&cs=tinysrgb&h=350",
                "small": "https://images.pexels.com/photos/2181230/pexels-photo-2181230.jpeg?auto=compress&cs=tinysrgb&h=130",
                "portrait": "https://images.pexels.com/photos/2181230/pexels-photo-2181230.jpeg?auto=compress&cs=tinysrgb&fit=crop&h=1200&w=800",
                "landscape": "https://images.pexels.com/photos/2181230/pexels-photo-2181230.jpeg?auto=compress&cs=tinysrgb&fit=crop&h=627&w=1200",
                "tiny": "https://images.pexels.com/photos/2181230/pexels-photo-2181230.jpeg?auto=compress&cs=tinysrgb&dpr=1&fit=crop&h=200&w=280"
            },
            "liked": false,
            "alt": "Low Angle Photography of Brown Building With Los Angeles Led Sign"
        },
        {
            "id": 360698,
            "width": 4608,
            "height": 3456,
            "url": "https://www.pexels.com/photo/seashore-under-blue-sky-360698/",
            "photographer": "Natália Ivanková",
            "photographer_url": "https://www.pexels.com/@natalia-ivankova-117015",
            "photographer_id": 117015,
            "avg_color": "#678E99",
            "src": {
                "original": "https://images.pexels.com/photos/360698/pexels-photo-360698.jpeg",
                "large2x": "https://images.pexels.com/photos/360698/pexels-photo-360698.jpeg?auto=compress&cs=tinysrgb&dpr=2&h=650&w=940",
                "large": "https://images.pexels.com/photos/360698/pexels-photo-360698.jpeg?auto=compress&cs=tinysrgb&h=650&w=940",
                "medium": "https://images.pexels.com/photos/360698/pexels-photo-360698.jpeg?auto=compress&cs=tinysrgb&h=350",
                "small": "https://images.pexels.com/photos/360698/pexels-photo-360698.jpeg?auto=compress&cs=tinysrgb&h=130",
                "portrait": "https://images.pexels.com/photos/360698/pexels-photo-360698.jpeg?auto=compress&cs=tinysrgb&fit=crop&h=1200&w=800",
                "landscape": "https://images.pexels.com/photos/360698/pexels-photo-360698.jpeg?auto=compress&cs=tinysrgb&fit=crop&h=627&w=1200",
                "tiny": "https://images.pexels.com/photos/360698/pexels-photo-360698.jpeg?auto=compress&cs=tinysrgb&dpr=1&fit=crop&h=200&w=280"
            },
            "liked": false,
            "alt": "Seashore Under Blue Sky"
        },
        {
            "id": 2670273,
            "width": 3024,
            "height": 4032,
            "url": "https://www.pexels.com/photo/the-beverly-hills-building-2670273/",
            "photographer": "Erica Zhao",
            "photographer_url": "https://www.pexels.com/@ericazhao",
            "photographer_id": 1263854,
            "avg_color": "#AFB5B2",
            "src": {
                "original": "https://images.pexels.com/photos/2670273/pexels-photo-2670273.jpeg",
                "large2x": "https://images.pexels.com/photos/2670273/pexels-photo-2670273.jpeg?auto=compress&cs=tinysrgb&dpr=2&h=650&w=940",
                "large": "https://images.pexels.com/photos/2670273/pexels-photo-2670273.jpeg?auto=compress&cs=tinysrgb&h=650&w=940",
                "medium": "https://images.pexels.com/photos/2670273/pexels-photo-2670273.jpeg?auto=compress&cs=tinysrgb&h=350",
                "small": "https://images.pexels.com/photos/2670273/pexels-photo-2670273.jpeg?auto=compress&cs=tinysrgb&h=130",
                "portrait": "https://images.pexels.com/photos/2670273/pexels-photo-2670273.jpeg?auto=compress&cs=tinysrgb&fit=crop&h=1200&w=800",
                "landscape": "https://images.pexels.com/photos/2670273/pexels-photo-2670273.jpeg?auto=compress&cs=tinysrgb&fit=crop&h=627&w=1200",
                "tiny": "https://images.pexels.com/photos/2670273/pexels-photo-2670273.jpeg?auto=compress&cs=tinysrgb&dpr=1&fit=crop&h=200&w=280"
            },
            "liked": false,
            "alt": "The Beverly Hills Building"
        },
        {
            "id": 2763964,
            "width": 6000,
            "height": 4000,
            "url": "https://www.pexels.com/photo/letters-hanging-on-string-2763964/",
            "photographer": "Martin  Péchy",
            "photographer_url": "https://www.pexels.com/@martinpechy",
            "photographer_id": 87367,
            "avg_color": "#B5AFAC",
            "src": {
                "original": "https://images.pexels.com/photos/2763964/pexels-photo-2763964.jpeg",
                "large2x": "https://images.pexels.com/photos/2763964/pexels-photo-2763964.jpeg?auto=compress&cs=tinysrgb&dpr=2&h=650&w=940",
                "large": "https://images.pexels.com/photos/2763964/pexels-photo-2763964.jpeg?auto=compress&cs=tinysrgb&h=650&w=940",
                "medium": "https://images.pexels.com/photos/2763964/pexels-photo-2763964.jpeg?auto=compress&cs=tinysrgb&h=350",
                "small": "https://images.pexels.com/photos/2763964/pexels-photo-2763964.jpeg?auto=compress&cs=tinysrgb&h=130",
                "portrait": "https://images.pexels.com/photos/2763964/pexels-photo-2763964.jpeg?auto=compress&cs=tinysrgb&fit=crop&h=1200&w=800",
                "landscape": "https://images.pexels.com/photos/2763964/pexels-photo-2763964.jpeg?auto=compress&cs=tinysrgb&fit=crop&h=627&w=1200",
                "tiny": "https://images.pexels.com/photos/2763964/pexels-photo-2763964.jpeg?auto=compress&cs=tinysrgb&dpr=1&fit=crop&h=200&w=280"
            },
            "liked": false,
            "alt": "Letters Hanging On String"
        },
        {
            "id": 672914,
            "width": 5184,
            "height": 3456,
            "url": "https://www.pexels.com/photo/ferris-wheel-lit-during-night-time-672914/",
            "photographer": "Belle Co",
            "photographer_url": "https://www.pexels.com/@belle-co-99483",
            "photographer_id": 99483,
            "avg_color": "#36565F",
            "src": {
                "original": "https://images.pexels.com/photos/672914/pexels-photo-672914.jpeg",
                "large2x": "https://images.pexels.com/photos/672914/pexels-photo-672914.jpeg?auto=compress&cs=tinysrgb&dpr=2&h=650&w=940",
                "large": "https://images.pexels.com/photos/672914/pexels-photo-672914.jpeg?auto=compress&cs=tinysrgb&h=650&w=940",
                "medium": "https://images.pexels.com/photos/672914/pexels-photo-672914.jpeg?auto=compress&cs=tinysrgb&h=350",
                "small": "https://images.pexels.com/photos/672914/pexels-photo-672914.jpeg?auto=compress&cs=tinysrgb&h=130",
                "portrait": "https://images.pexels.com/photos/672914/pexels-photo-672914.jpeg?auto=compress&cs=tinysrgb&fit=crop&h=1200&w=800",
                "landscape": "https://images.pexels.com/photos/672914/pexels-photo-672914.jpeg?auto=compress&cs=tinysrgb&fit=crop&h=627&w=1200",
                "tiny": "https://images.pexels.com/photos/672914/pexels-photo-672914.jpeg?auto=compress&cs=tinysrgb&dpr=1&fit=crop&h=200&w=280"
            },
            "liked": false,
            "alt": "Ferris Wheel Lit during Night Time"
        },
        {
            "id": 3410816,
            "width": 2982,
            "height": 3982,
            "url": "https://www.pexels.com/photo/hollywood-sign-viewing-houses-under-blue-and-white-sky-3410816/",
            "photographer": "Vinicius Maciel",
            "photographer_url": "https://www.pexels.com/@vinicius-maciel-1820405",
            "photographer_id": 1820405,
            "avg_color": "#817672",
            "src": {
                "original": "https://images.pexels.com/photos/3410816/pexels-photo-3410816.jpeg",
                "large2x": "https://images.pexels.com/photos/3410816/pexels-photo-3410816.jpeg?auto=compress&cs=tinysrgb&dpr=2&h=650&w=940",
                "large": "https://images.pexels.com/photos/3410816/pexels-photo-3410816.jpeg?auto=compress&cs=tinysrgb&h=650&w=940",
                "medium": "https://images.pexels.com/photos/3410816/pexels-photo-3410816.jpeg?auto=compress&cs=tinysrgb&h=350",
                "small": "https://images.pexels.com/photos/3410816/pexels-photo-3410816.jpeg?auto=compress&cs=tinysrgb&h=130",
                "portrait": "https://images.pexels.com/photos/3410816/pexels-photo-3410816.jpeg?auto=compress&cs=tinysrgb&fit=crop&h=1200&w=800",
                "landscape": "https://images.pexels.com/photos/3410816/pexels-photo-3410816.jpeg?auto=compress&cs=tinysrgb&fit=crop&h=627&w=1200",
                "tiny": "https://images.pexels.com/photos/3410816/pexels-photo-3410816.jpeg?auto=compress&cs=tinysrgb&dpr=1&fit=crop&h=200&w=280"
            },
            "liked": false,
            "alt": "Hollywood Sign Viewing Houses Under Blue and White Sky"
        },
        {
            "id": 2709964,
            "width": 5472,
            "height": 3648,
            "url": "https://www.pexels.com/photo/white-and-brown-buildings-2709964/",
            "photographer": "Roberto Nickson",
            "photographer_url": "https://www.pexels.com/@rpnickson",
            "photographer_id": 1268114,
            "avg_color": "#857E6B",
            "src": {
                "original": "https://images.pexels.com/photos/2709964/pexels-photo-2709964.jpeg",
                "large2x": "https://images.pexels.com/photos/2709964/pexels-photo-2709964.jpeg?auto=compress&cs=tinysrgb&dpr=2&h=650&w=940",
                "large": "https://images.pexels.com/photos/2709964/pexels-photo-2709964.jpeg?auto=compress&cs=tinysrgb&h=650&w=940",
                "medium": "https://images.pexels.com/photos/2709964/pexels-photo-2709964.jpeg?auto=compress&cs=tinysrgb&h=350",
                "small": "https://images.pexels.com/photos/2709964/pexels-photo-2709964.jpeg?auto=compress&cs=tinysrgb&h=130",
                "portrait": "https://images.pexels.com/photos/2709964/pexels-photo-2709964.jpeg?auto=compress&cs=tinysrgb&fit=crop&h=1200&w=800",
                "landscape": "https://images.pexels.com/photos/2709964/pexels-photo-2709964.jpeg?auto=compress&cs=tinysrgb&fit=crop&h=627&w=1200",
                "tiny": "https://images.pexels.com/photos/2709964/pexels-photo-2709964.jpeg?auto=compress&cs=tinysrgb&dpr=1&fit=crop&h=200&w=280"
            },
            "liked": false,
            "alt": "White and Brown Buildings"
        }
    ],
    "total_results": 2364,
    "next_page": "https://api.pexels.com/v1/search/?page=2&per_page=15&query=Los+Angeles"
}
